gis assignment for CASA
…
colnames(nyfc) <- colnames(nyfc) %>% 
  str_to_lower() %>% 
  str_replace_all(" ", "_")
#check all of the columns have been read in correctly
Datatypelist <- nyfc %>% 
  summarise_all(class) %>%
  pivot_longer(everything(), 
               names_to="All_variables", 
               values_to="Variable_class")
Datatypelist

## # A tibble: 40 x 2
##    All_variables Variable_class
##    <chr>         <chr>         
##  1 x             numeric       
##  2 y             numeric       
##  3 objectid      numeric       
##  4 facname       character     
##  5 addressnum    character     
##  6 streetname    character     
##  7 address       character     
##  8 city          character     
##  9 zipcode       numeric       
## 10 boro          character     
## # ... with 30 more rows
…
